Data Memory/Lab6 Part 2/cpu_wavedata_new.vcd
$date
	Tue Jun 25 02:30:11 2024
$end
$version
	Icarus Verilog
$end
$timescale
	100ps
$end
$scope module cpu_tb $end
$var wire 32 ! PC [31:0] $end
$var wire 32 " INSTRUCTION [31:0] $end
$var wire 32 # DM_WRITEDATA [31:0] $end
$var wire 1 $ DM_WRITE $end
$var wire 32 % DM_READDATA [31:0] $end
$var wire 1 & DM_READ $end
$var wire 1 ' DM_BUSYWAIT $end
$var wire 6 ( DM_ADDRESS [5:0] $end
$var wire 8 ) CPU_WRITEDATA [7:0] $end
$var wire 1 * CPU_WRITE $end
$var wire 8 + CPU_READDATA [7:0] $end
$var wire 1 , CPU_READ $end
$var wire 1 - CPU_BUSYWAIT $end
$var wire 8 . CPU_ADDRESS [7:0] $end
$var reg 1 / CLK $end
$var reg 1 0 RESET $end
$scope module my_datacache $end
$var wire 3 1 cache_tag [2:0] $end
$var wire 1 / clock $end
$var wire 1 2 dirty $end
$var wire 1 3 hit $end
$var wire 1 0 reset $end
$var wire 1 * write $end
$var wire 3 4 tag [2:0] $end
$var wire 1 , read $end
$var wire 2 5 offset [1:0] $end
$var wire 32 6 mem_readdata [31:0] $end
$var wire 1 ' mem_busywait $end
$var wire 3 7 index [2:0] $end
$var wire 8 8 cpu_writeData [7:0] $end
$var wire 8 9 address [7:0] $end
$var parameter 3 : IDLE $end
$var parameter 3 ; MEM_READ $end
$var parameter 3 < MEM_WRITE $end
$var reg 1 - busywait $end
$var reg 1 = cache_write $end
$var reg 8 > cpu_readData [7:0] $end
$var reg 6 ? mem_address [5:0] $end
$var reg 1 & mem_read $end
$var reg 1 $ mem_write $end
$var reg 32 @ mem_writedata [31:0] $end
$var reg 3 A next_state [2:0] $end
$var reg 3 B state [2:0] $end
$var reg 1 C tagmatch $end
$var integer 32 D i [31:0] $end
$upscope $end
$scope module my_datamem $end
$var wire 6 E address [5:0] $end
$var wire 1 / clock $end
$var wire 1 & read $end
$var wire 1 0 reset $end
$var wire 1 $ write $end
$var wire 32 F writedata [31:0] $end
$var reg 1 ' busywait $end
$var reg 1 G readaccess $end
$var reg 32 H readdata [31:0] $end
$var reg 1 I writeaccess $end
$var integer 32 J i [31:0] $end
$upscope $end
$scope module mycpu $end
$var wire 8 K ADDRESS [7:0] $end
$var wire 1 - BUSYWAIT $end
$var wire 1 / CLK $end
$var wire 32 L INSTRUCTION [31:0] $end
$var wire 8 M READDATA [7:0] $end
$var wire 1 0 RESET $end
$var wire 8 N WRITEDATA [7:0] $end
$var wire 8 O registerOp [7:0] $end
$var wire 32 P newPC [31:0] $end
$var wire 8 Q negatedOp [7:0] $end
$var wire 1 R flowSelect $end
$var wire 1 S ZERO $end
$var wire 3 T WRITEREG [2:0] $end
$var wire 32 U TARGET [31:0] $end
$var wire 8 V REGOUT2 [7:0] $end
$var wire 8 W REGOUT1 [7:0] $end
$var wire 8 X REGIN [7:0] $end
$var wire 3 Y READREG2 [2:0] $end
$var wire 3 Z READREG1 [2:0] $end
$var wire 32 [ PCplus4 [31:0] $end
$var wire 32 \ PCout [31:0] $end
$var wire 8 ] OPERAND2 [7:0] $end
$var wire 8 ^ OFFSET [7:0] $end
$var wire 8 _ IMMEDIATE [7:0] $end
$var wire 8 ` ALURESULT [7:0] $end
$var reg 3 a ALUOP [2:0] $end
$var reg 1 b BRANCH $end
$var reg 1 c JUMP $end
$var reg 8 d OPCODE [7:0] $end
$var reg 32 e PC [31:0] $end
$var reg 1 , READ $end
$var reg 1 * WRITE $end
$var reg 1 f WRITEENABLE $end
$var reg 1 g dataSelect $end
$var reg 1 h immSelect $end
$var reg 1 i signSelect $end
$scope module busywaitMUX $end
$var wire 32 j IN2 [31:0] $end
$var wire 1 - SELECT $end
$var wire 32 k IN1 [31:0] $end
$var reg 32 l OUT [31:0] $end
$upscope $end
$scope module datamux $end
$var wire 8 m IN2 [7:0] $end
$var wire 1 g SELECT $end
$var wire 8 n IN1 [7:0] $end
$var reg 8 o OUT [7:0] $end
$upscope $end
$scope module flowctrlmux $end
$var wire 1 R SELECT $end
$var wire 32 p IN2 [31:0] $end
$var wire 32 q IN1 [31:0] $end
$var reg 32 r OUT [31:0] $end
$upscope $end
$scope module immediateMUX $end
$var wire 8 s IN2 [7:0] $end
$var wire 1 h SELECT $end
$var wire 8 t IN1 [7:0] $end
$var reg 8 u OUT [7:0] $end
$upscope $end
$scope module my_alu $end
$var wire 8 v DATA2 [7:0] $end
$var wire 3 w SELECT [2:0] $end
$var wire 1 S ZERO $end
$var wire 8 x orOut [7:0] $end
$var wire 8 y forwardOut [7:0] $end
$var wire 8 z andOut [7:0] $end
$var wire 8 { addOut [7:0] $end
$var wire 8 | DATA1 [7:0] $end
$var reg 8 } RESULT [7:0] $end
$scope module addUnit $end
$var wire 8 ~ DATA2 [7:0] $end
$var wire 8 !" RESULT [7:0] $end
$var wire 8 "" DATA1 [7:0] $end
$upscope $end
$scope module andUnit $end
$var wire 8 #" DATA2 [7:0] $end
$var wire 8 $" RESULT [7:0] $end
$var wire 8 %" DATA1 [7:0] $end
$upscope $end
$scope module forwardUnit $end
$var wire 8 &" DATA [7:0] $end
$var wire 8 '" RESULT [7:0] $end
$upscope $end
$scope module orUnit $end
$var wire 8 (" DATA2 [7:0] $end
$var wire 8 )" RESULT [7:0] $end
$var wire 8 *" DATA1 [7:0] $end
$upscope $end
$upscope $end
$scope module my_flowControl $end
$var wire 1 b BRANCH $end
$var wire 1 c JUMP $end
$var wire 1 R OUT $end
$var wire 1 S ZERO $end
$upscope $end
$scope module my_jumpbranchAdder $end
$var wire 8 +" OFFSET [7:0] $end
$var wire 22 ," signBits [21:0] $end
$var wire 32 -" TARGET [31:0] $end
$var wire 32 ." PC [31:0] $end
$upscope $end
$scope module my_pcAdder $end
$var wire 32 /" PC [31:0] $end
$var wire 32 0" PCplus4 [31:0] $end
$upscope $end
$scope module my_reg $end
$var wire 1 / CLK $end
$var wire 8 1" IN [7:0] $end
$var wire 3 2" INADDRESS [2:0] $end
$var wire 8 3" OUT1 [7:0] $end
$var wire 3 4" OUT1ADDRESS [2:0] $end
$var wire 8 5" OUT2 [7:0] $end
$var wire 3 6" OUT2ADDRESS [2:0] $end
$var wire 1 0 RESET $end
$var wire 1 7" WRITE $end
$var integer 32 8" i [31:0] $end
$upscope $end
$scope module my_twosComp $end
$var wire 8 9" IN [7:0] $end
$var wire 8 :" OUT [7:0] $end
$upscope $end
$scope module negationMUX $end
$var wire 8 ;" IN1 [7:0] $end
$var wire 8 <" IN2 [7:0] $end
$var wire 1 i SELECT $end
$var reg 8 =" OUT [7:0] $end
$upscope $end
$upscope $end
$upscope $end
$enddefinitions $end
$comment Show the parameter values. $end
$dumpall
b10 <
b1 ;
b0 :
$end
#0
$dumpvars
bx ="
bx <"
bx ;"
bx :"
bx 9"
bx 8"
x7"
bx 6"
bx 5"
bx 4"
bx 3"
bx 2"
bx 1"
bx 0"
bx /"
bx ."
bx -"
bx ,"
bx +"
bx *"
bx )"
bx ("
bx '"
bx &"
bx %"
bx $"
bx #"
bx ""
bx !"
bx ~
bx }
bx |
bx {
bx z
bx y
bx x
bx w
bx v
bx u
bx t
bx s
bx r
bx q
bx p
bx o
bx n
bx m
bx l
bx k
bx j
xi
xh
xg
xf
bx e
bx d
xc
xb
bx a
bx `
bx _
bx ^
bx ]
bx \
bx [
bx Z
bx Y
bx X
bx W
bx V
bx U
bx T
xS
xR
bx Q
bx P
bx O
bx N
bx M
bx L
bx K
b100000000 J
0I
bx H
0G
b0xxxxxxxx F
bx E
b111 D
xC
b0 B
b0 A
b0xxxxxxxx @
bx ?
bx >
x=
bx 9
bx 8
bx 7
bx 6
bx 5
bx 4
x3
x2
bz 1
10
0/
bx .
x-
x,
bx +
x*
bx )
bx (
0'
0&
bx %
0$
b0xxxxxxxx #
bx "
bx !
$end
#40
b111 D
1/
#50
b1000 8"
b0 !
b0 e
b0 j
b0 /"
00
#60
b100 P
b100 l
b100 \
b100 k
b100 r
b100 [
b100 q
b100 ."
b100 0"
#70
b0 Z
b0 4"
b1 Y
b1 6"
b0 T
b0 2"
b0 ,"
b0 d
b1001 _
b1001 s
b0 ^
b0 +"
b1001 "
b1001 L
#80
17"
0R
0-
b1001 ]
b1001 u
b1001 v
b1001 ~
b1001 #"
b1001 &"
b1001 ("
0g
0*
0,
1f
0b
0c
0i
1h
b0 a
b0 w
0/
#90
0S
b1001 X
b1001 o
b1001 1"
b1001 .
b1001 9
b1001 K
b1001 `
b1001 n
b1001 }
b0 O
b0 t
b0 ="
b0x00x z
b0x00x $"
bx1xx1 x
bx1xx1 )"
b1001 y
b1001 '"
b0 )
b0 8
b0 N
b0 W
b0 |
b0 ""
b0 %"
b0 *"
b0 3"
b0 V
b0 5"
b0 9"
b0 ;"
b100 U
b100 p
b100 -"
#100
03
b1 5
b10 7
b0 4
b1001 x
b1001 )"
b0 z
b0 $"
b0 Q
b0 :"
b0 <"
#109
0C
#110
02
b1001 {
b1001 !"
#120
1/
#130
b100 !
b100 e
b100 j
b100 /"
#140
b1000 P
b1000 l
b1000 \
b1000 k
b1000 r
b1000 [
b1000 q
b1000 ."
b1000 0"
#150
b1 ]
b1 u
b1 v
b1 ~
b1 #"
b1 &"
b1 ("
b1 T
b1 2"
b1 _
b1 s
b1 ^
b1 +"
b10000000000000001 "
b10000000000000001 L
b1001 )
b1001 8
b1001 N
b1001 W
b1001 |
b1001 ""
b1001 %"
b1001 *"
b1001 3"
#160
b1 X
b1 o
b1 1"
b1 .
b1 9
b1 K
b1 `
b1 n
b1 }
b1 y
b1 '"
b1 z
b1 $"
0/
#170
b0 7
b1100 U
b1100 p
b1100 -"
b1010 {
b1010 !"
#200
1/
#210
b1000 !
b1000 e
b1000 j
b1000 /"
#220
b1100 P
b1100 l
b1100 \
b1100 k
b1100 r
b1100 [
b1100 q
b1100 ."
b1100 0"
#230
b0 T
b0 2"
b1 O
b1 t
b1 ="
b1010 d
b0 ^
b0 +"
b1 V
b1 5"
b1 9"
b1 ;"
b1010000000000000000000000001 "
b1010000000000000000000000001 L
#240
b1000 P
b1000 l
b1 A
1-
07"
b11111111 Q
b11111111 :"
b11111111 <"
1*
0f
0h
0/
#280
1G
1'
bx #
bx @
bx F
b0 (
b0 ?
b0 E
1&
b1 A
b1 B
1/
#320
0/
#360
1/
#400
0/
#440
1/
#480
0/
#520
1/
#560
0/
#600
1/
#640
0/
#680
1/
#720
0/
#760
1/
bx00000000 %
bx00000000 6
bx00000000 H
#800
0/
#840
1/
#880
0/
#920
1/
#960
0/
#1000
1/
#1040
0/
#1080
1/
#1120
0/
#1160
1/
bx0000000000000000 %
bx0000000000000000 6
bx0000000000000000 H
#1200
0/
#1240
1/
#1280
0/
#1320
1/
#1360
0/
#1400
1/
#1440
0/
#1480
1/
#1520
0/
#1560
1/
bx000000000000000000000000 %
bx000000000000000000000000 6
bx000000000000000000000000 H
#1600
0/
#1640
1/
#1680
0/
#1720
1/
#1760
0/
#1800
1/
#1840
0/
#1880
1/
#1920
0/
#1960
b0 B
b1 A
1/
0G
0'
b0 %
b0 6
b0 H
#1970
b0 +
b0 >
b0 M
b0 m
#1979
0*
b1100 P
b1100 l
b0 A
1=
0-
13
1C
#2000
0/
#2040
1/
#2050
b0xxxxxxxx #
b0xxxxxxxx @
b0xxxxxxxx F
bx (
bx ?
bx E
0&
b1001 +
b1001 >
b1001 M
b1001 m
b1100 !
b1100 e
b1100 j
b1100 /"
#2060
b10000 P
b10000 l
b10000 \
b10000 k
b10000 r
12
b10000 [
b10000 q
b10000 ."
b10000 0"
#2070
b1 Z
b1 4"
b0 Y
b0 6"
b1011 d
b0 _
b0 s
b1011000000000000000100000000 "
b1011000000000000000100000000 L
#2080
0-
b0 ]
b0 u
b0 v
b0 ~
b0 #"
b0 &"
b0 ("
0*
1h
b10000 U
b10000 p
b10000 -"
0/
#2090
1S
b0 X
b0 o
b0 1"
b0 .
b0 9
b0 K
b0 `
b0 n
b0 }
b1001 O
b1001 t
b1001 ="
b0 z
b0 $"
b0 y
b0 '"
b1 )
b1 8
b1 N
b1 W
b1 |
b1 ""
b1 %"
b1 *"
b1 3"
b1001 V
b1001 5"
b1001 9"
b1001 ;"
#2100
b0 +
b0 >
b0 M
b0 m
b0 5
b1 x
b1 )"
b11110111 Q
b11110111 :"
b11110111 <"
#2110
b1 {
b1 !"
#2120
1/
#2130
b1 +
b1 >
b1 M
b1 m
b10000 !
b10000 e
b10000 j
b10000 /"
#2140
b10100 P
b10100 l
b10100 \
b10100 k
b10100 r
b10100 [
b10100 q
b10100 ."
b10100 0"
#2150
b0 Z
b0 4"
b1 ]
b1 u
b1 v
b1 ~
b1 #"
b1 &"
b1 ("
b1 Y
b1 6"
b10 T
b10 2"
b1000 d
b1 _
b1 s
b10 ^
b10 +"
b1000000000100000000000000001 "
b1000000000100000000000000001 L
#2160
0S
03
b1 .
b1 9
b1 K
b1 `
b1 n
b1 }
b1 X
b1 o
b1 1"
0C
0-
17"
b1001 ]
b1001 u
b1001 v
b1001 ~
b1001 #"
b1001 &"
b1001 ("
b1 z
b1 $"
b1 y
b1 '"
1g
0,
1f
0h
0/
#2170
b1001 X
b1001 o
b1001 1"
b1 ]
b1 u
b1 v
b1 ~
b1 #"
b1 &"
b1 ("
b1001 +
b1001 >
b1001 M
b1001 m
b1001 .
b1001 9
b1001 K
b1001 `
b1001 n
b1001 }
b1 O
b1 t
b1 ="
b1 5
b1001 x
b1001 )"
b1001 y
b1001 '"
b1001 )
b1001 8
b1001 N
b1001 W
b1001 |
b1001 ""
b1001 %"
b1001 *"
b1001 3"
b1 V
b1 5"
b1 9"
b1 ;"
b11100 U
b11100 p
b11100 -"
#2180
bx X
bx o
bx 1"
bx +
bx >
bx M
bx m
b1 .
b1 9
b1 K
b1 `
b1 n
b1 }
b10 7
b1 y
b1 '"
b11111111 Q
b11111111 :"
b11111111 <"
#2190
b1001 X
b1001 o
b1001 1"
b1001 +
b1001 >
b1001 M
b1001 m
b0 7
02
b1010 {
b1010 !"
#2199
13
1C
#2200
12
1/
#2210
b10100 !
b10100 e
b10100 j
b10100 /"
#2220
b11000 P
b11000 l
b11000 \
b11000 k
b11000 r
b11000 [
b11000 q
b11000 ."
b11000 0"
#2230
b11 T
b11 2"
b11 ^
b11 +"
b1000000000110000000000000001 "
b1000000000110000000000000001 L
#2240
03
0C
0-
0,
0/
#2250
b100100 U
b100100 p
b100100 -"
#2280
1/
#2290
b11000 !
b11000 e
b11000 j
b11000 /"
#2300
b11100 P
b11100 l
b11100 \
b11100 k
b11100 r
b11100 [
b11100 q
b11100 ."
b11100 0"
#2310
b100 T
b100 2"
b11 d
b100 ^
b100 +"
b11000001000000000000000001 "
b11000001000000000000000001 L
#2320
b11111111 ]
b11111111 u
b11111111 v
b11111111 ~
b11111111 #"
b11111111 &"
b11111111 ("
b1010 X
b1010 o
b1010 1"
b11111111 O
b11111111 t
b11111111 ="
b1010 .
b1010 9
b1010 K
b1010 `
b1010 n
b1010 }
0g
1i
b1 a
b1 w
0/
#2330
bx +
bx >
bx M
bx m
b1001 z
b1001 $"
b11111111 x
b11111111 )"
b11111111 y
b11111111 '"
b10 5
b10 7
b101100 U
b101100 p
b101100 -"
#2340
b1000 X
b1000 o
b1000 1"
b1000 .
b1000 9
b1000 K
b1000 `
b1000 n
b1000 }
02
b1000 {
b1000 !"
#2350
b0 5
#2360
1/
#2370
b1001 +
b1001 >
b1001 M
b1001 m
b11100 !
b11100 e
b11100 j
b11100 /"
#2380
b100000 P
b100000 l
b100000 \
b100000 k
b100000 r
12
b100000 [
b100000 q
b100000 ."
b100000 0"
#2390
b100 Z
b100 4"
b10 Y
b10 6"
b0 T
b0 2"
b1011 d
b10 _
b10 s
b0 ^
b0 +"
b1011000000000000010000000010 "
b1011000000000000010000000010 L
#2400
b11100 P
b11100 l
b11111111 X
b11111111 o
b11111111 1"
b10 A
1-
07"
b1 O
b1 t
b1 ="
b10 ]
b10 u
b10 v
b10 ~
b10 #"
b10 &"
b10 ("
b11111111 .
b11111111 9
b11111111 K
b11111111 `
b11111111 n
b11111111 }
1*
0f
0i
1h
b0 a
b0 w
0/
#2410
b10 X
b10 o
b10 1"
bx +
bx >
bx M
bx m
b10 .
b10 9
b10 K
b10 `
b10 n
b10 }
b1001 O
b1001 t
b1001 ="
b0 z
b0 $"
b1011 x
b1011 )"
b11 5
b111 7
b111 4
b10 y
b10 '"
b1000 )
b1000 8
b1000 N
b1000 W
b1000 |
b1000 ""
b1000 %"
b1000 *"
b1000 3"
b1001 V
b1001 5"
b1001 9"
b1001 ;"
b100000 U
b100000 p
b100000 -"
#2420
b0 +
b0 >
b0 M
b0 m
b0 A
b10 5
b0 7
b0 4
b1010 x
b1010 )"
b11110111 Q
b11110111 :"
b11110111 <"
x2
#2429
0*
b100000 P
b100000 l
0-
13
1C
#2430
12
b1010 {
b1010 !"
#2440
1/
#2450
b1000 +
b1000 >
b1000 M
b1000 m
b100000 !
b100000 e
b100000 j
b100000 /"
#2460
b100100 P
b100100 l
b100100 \
b100100 k
b100100 r
b100100 [
b100100 q
b100100 ."
b100100 0"
#2470
b0 Z
b0 4"
b101 T
b101 2"
b1001 d
b101 ^
b101 +"
b1001000001010000000000000010 "
b1001000001010000000000000010 L
#2480
03
b1000 X
b1000 o
b1000 1"
0C
0-
17"
1g
0,
1f
0/
#2490
b1001 )
b1001 8
b1001 N
b1001 W
b1001 |
b1001 ""
b1001 %"
b1001 *"
b1001 3"
b111000 U
b111000 p
b111000 -"
#2500
b1011 x
b1011 )"
#2510
b1011 {
b1011 !"
#2520
1/
#2530
b1001 X
b1001 o
b1001 1"
b1001 +
b1001 >
b1001 M
b1001 m
b100100 !
b100100 e
b100100 j
b100100 /"
#2540
b101000 P
b101000 l
b101000 \
b101000 k
b101000 r
b101000 [
b101000 q
b101000 ."
b101000 0"
#2550
b100 Z
b100 4"
b100000 ]
b100000 u
b100000 v
b100000 ~
b100000 #"
b100000 &"
b100000 ("
b0 Y
b0 6"
b0 T
b0 2"
b1011 d
b100000 _
b100000 s
b0 ^
b0 +"
b1011000000000000010000100000 "
b1011000000000000010000100000 L
#2560
b100100 P
b100100 l
b100000 .
b100000 9
b100000 K
b100000 `
b100000 n
b100000 }
b10 A
1-
07"
b101001 x
b101001 )"
b100000 y
b100000 '"
1*
0f
0/
#2570
b1 X
b1 o
b1 1"
b1 +
b1 >
b1 M
b1 m
b0 5
b1 4
b1000 )
b1000 8
b1000 N
b1000 W
b1000 |
b1000 ""
b1000 %"
b1000 *"
b1000 3"
b101001 {
b101001 !"
b101000 U
b101000 p
b101000 -"
#2580
b101000 x
b101000 )"
#2590
b101000 {
b101000 !"
#2600
1I
1'
b10010000100100000001 #
b10010000100100000001 @
b10010000100100000001 F
bz000 (
bz000 ?
bz000 E
1$
b10 A
b10 B
1/
#2610
b1000 X
b1000 o
b1000 1"
b10010000100100001000 #
b10010000100100001000 @
b10010000100100001000 F
b1000 +
b1000 >
b1000 M
b1000 m
02
#2620
12
