Data Memory/Lab6 Part3/cpu_wavedata.vcd
$date
	Sun Jul 07 12:49:13 2024
$end
$version
	Icarus Verilog
$end
$timescale
	100ps
$end
$scope module cpu_tb $end
$var wire 32 ! PC [31:0] $end
$var wire 1 " INSTR_BUSYWAIT $end
$var wire 32 # INSTRUCTION [31:0] $end
$var wire 1 $ IM_READ $end
$var wire 128 % IM_INSTR [127:0] $end
$var wire 1 & IM_BUSYWAIT $end
$var wire 6 ' IM_ADDRESS [5:0] $end
$var wire 32 ( DM_WRITEDATA [31:0] $end
$var wire 1 ) DM_WRITE $end
$var wire 32 * DM_READDATA [31:0] $end
$var wire 1 + DM_READ $end
$var wire 1 , DM_BUSYWAIT $end
$var wire 6 - DM_ADDRESS [5:0] $end
$var wire 8 . CPU_WRITEDATA [7:0] $end
$var wire 1 / CPU_WRITE $end
$var wire 8 0 CPU_READDATA [7:0] $end
$var wire 1 1 CPU_READ $end
$var wire 1 2 CPU_BUSYWAIT $end
$var wire 8 3 CPU_ADDRESS [7:0] $end
$var reg 1 4 CLK $end
$var reg 1 5 RESET $end
$scope module my_datacache $end
$var wire 32 6 cache_block [31:0] $end
$var wire 1 4 clock $end
$var wire 1 7 dirty $end
$var wire 1 8 hit $end
$var wire 1 5 reset $end
$var wire 1 9 valid $end
$var wire 1 / write $end
$var wire 1 : tagMatch $end
$var wire 3 ; tag [2:0] $end
$var wire 1 1 read $end
$var wire 2 < offset [1:0] $end
$var wire 32 = mem_readdata [31:0] $end
$var wire 1 , mem_busywait $end
$var wire 3 > index [2:0] $end
$var wire 8 ? cpu_writeData [7:0] $end
$var wire 3 @ cache_tag [2:0] $end
$var wire 8 A address [7:0] $end
$var parameter 3 B IDLE $end
$var parameter 3 C MEM_READ $end
$var parameter 3 D MEM_WRITE $end
$var reg 1 2 busywait $end
$var reg 1 E cacheWrite $end
$var reg 8 F cpu_readData [7:0] $end
$var reg 6 G mem_address [5:0] $end
$var reg 1 + mem_read $end
$var reg 1 ) mem_write $end
$var reg 32 H mem_writedata [31:0] $end
$var reg 3 I next_state [2:0] $end
$var reg 3 J state [2:0] $end
$var integer 32 K i [31:0] $end
$upscope $end
$scope module my_datamem $end
$var wire 6 L address [5:0] $end
$var wire 1 4 clock $end
$var wire 1 + read $end
$var wire 1 5 reset $end
$var wire 1 ) write $end
$var wire 32 M writedata [31:0] $end
$var reg 1 , busywait $end
$var reg 1 N readaccess $end
$var reg 32 O readdata [31:0] $end
$var reg 1 P writeaccess $end
$var integer 32 Q i [31:0] $end
$upscope $end
$scope module my_icache $end
$var wire 10 R address [9:0] $end
$var wire 1 4 clock $end
$var wire 1 S hit $end
$var wire 128 T instr_block [127:0] $end
$var wire 1 5 reset $end
$var wire 1 U valid $end
$var wire 1 V tagMatch $end
$var wire 3 W tag [2:0] $end
$var wire 32 X readinst [31:0] $end
$var wire 2 Y offset [1:0] $end
$var wire 128 Z mem_inst [127:0] $end
$var wire 1 & mem_busywait $end
$var wire 3 [ index [2:0] $end
$var wire 3 \ cache_tag [2:0] $end
$var parameter 3 ] IDLE $end
$var parameter 3 ^ MEM_READ $end
$var reg 1 " busywait $end
$var reg 32 _ loaded_instr [31:0] $end
$var reg 6 ` mem_address [5:0] $end
$var reg 1 $ mem_read $end
$var reg 3 a next_state [2:0] $end
$var reg 3 b state [2:0] $end
$var integer 32 c i [31:0] $end
$upscope $end
$scope module my_imemory $end
$var wire 6 d address [5:0] $end
$var wire 1 4 clock $end
$var wire 1 $ read $end
$var reg 1 & busywait $end
$var reg 1 e readaccess $end
$var reg 128 f readinst [127:0] $end
$upscope $end
$scope module mycpu $end
$var wire 8 g ADDRESS [7:0] $end
$var wire 1 2 BUSYWAIT $end
$var wire 1 4 CLK $end
$var wire 32 h INSTRUCTION [31:0] $end
$var wire 1 " INSTR_BUSYWAIT $end
$var wire 8 i READDATA [7:0] $end
$var wire 1 5 RESET $end
$var wire 8 j WRITEDATA [7:0] $end
$var wire 8 k registerOp [7:0] $end
$var wire 32 l newPC [31:0] $end
$var wire 8 m negatedOp [7:0] $end
$var wire 1 n flowSelect $end
$var wire 1 o ZERO $end
$var wire 3 p WRITEREG [2:0] $end
$var wire 32 q TARGET [31:0] $end
$var wire 8 r REGOUT2 [7:0] $end
$var wire 8 s REGOUT1 [7:0] $end
$var wire 8 t REGIN [7:0] $end
$var wire 3 u READREG2 [2:0] $end
$var wire 3 v READREG1 [2:0] $end
$var wire 32 w PCplus4 [31:0] $end
$var wire 32 x PCout [31:0] $end
$var wire 8 y OPERAND2 [7:0] $end
$var wire 8 z OFFSET [7:0] $end
$var wire 8 { IMMEDIATE [7:0] $end
$var wire 8 | ALURESULT [7:0] $end
$var reg 3 } ALUOP [2:0] $end
$var reg 1 ~ BRANCH $end
$var reg 1 !" JUMP $end
$var reg 8 "" OPCODE [7:0] $end
$var reg 32 #" PC [31:0] $end
$var reg 1 1 READ $end
$var reg 1 / WRITE $end
$var reg 1 $" WRITEENABLE $end
$var reg 1 %" dataSelect $end
$var reg 1 &" immSelect $end
$var reg 1 '" signSelect $end
$scope module busywaitMUX $end
$var wire 32 (" IN2 [31:0] $end
$var wire 1 )" SELECT $end
$var wire 32 *" IN1 [31:0] $end
$var reg 32 +" OUT [31:0] $end
$upscope $end
$scope module datamux $end
$var wire 8 ," IN2 [7:0] $end
$var wire 1 %" SELECT $end
$var wire 8 -" IN1 [7:0] $end
$var reg 8 ." OUT [7:0] $end
$upscope $end
$scope module flowctrlmux $end
$var wire 1 n SELECT $end
$var wire 32 /" IN2 [31:0] $end
$var wire 32 0" IN1 [31:0] $end
$var reg 32 1" OUT [31:0] $end
$upscope $end
$scope module immediateMUX $end
$var wire 8 2" IN2 [7:0] $end
$var wire 1 &" SELECT $end
$var wire 8 3" IN1 [7:0] $end
$var reg 8 4" OUT [7:0] $end
$upscope $end
$scope module my_alu $end
$var wire 8 5" DATA2 [7:0] $end
$var wire 3 6" SELECT [2:0] $end
$var wire 1 o ZERO $end
$var wire 8 7" orOut [7:0] $end
$var wire 8 8" forwardOut [7:0] $end
$var wire 8 9" andOut [7:0] $end
$var wire 8 :" addOut [7:0] $end
$var wire 8 ;" DATA1 [7:0] $end
$var reg 8 <" RESULT [7:0] $end
$scope module addUnit $end
$var wire 8 =" DATA2 [7:0] $end
$var wire 8 >" RESULT [7:0] $end
$var wire 8 ?" DATA1 [7:0] $end
$upscope $end
$scope module andUnit $end
$var wire 8 @" DATA2 [7:0] $end
$var wire 8 A" RESULT [7:0] $end
$var wire 8 B" DATA1 [7:0] $end
$upscope $end
$scope module forwardUnit $end
$var wire 8 C" DATA [7:0] $end
$var wire 8 D" RESULT [7:0] $end
$upscope $end
$scope module orUnit $end
$var wire 8 E" DATA2 [7:0] $end
$var wire 8 F" RESULT [7:0] $end
$var wire 8 G" DATA1 [7:0] $end
$upscope $end
$upscope $end
$scope module my_flowControl $end
$var wire 1 ~ BRANCH $end
$var wire 1 !" JUMP $end
$var wire 1 n OUT $end
$var wire 1 o ZERO $end
$upscope $end
$scope module my_jumpbranchAdder $end
$var wire 8 H" OFFSET [7:0] $end
$var wire 22 I" signBits [21:0] $end
$var wire 32 J" TARGET [31:0] $end
$var wire 32 K" PC [31:0] $end
$upscope $end
$scope module my_pcAdder $end
$var wire 32 L" PC [31:0] $end
$var wire 32 M" PCplus4 [31:0] $end
$upscope $end
$scope module my_reg $end
$var wire 1 4 CLK $end
$var wire 8 N" IN [7:0] $end
$var wire 3 O" INADDRESS [2:0] $end
$var wire 8 P" OUT1 [7:0] $end
$var wire 3 Q" OUT1ADDRESS [2:0] $end
$var wire 8 R" OUT2 [7:0] $end
$var wire 3 S" OUT2ADDRESS [2:0] $end
$var wire 1 5 RESET $end
$var wire 1 $" WRITE $end
$var integer 32 T" i [31:0] $end
$upscope $end
$scope module my_twosComp $end
$var wire 8 U" IN [7:0] $end
$var wire 8 V" OUT [7:0] $end
$upscope $end
$scope module negationMUX $end
$var wire 8 W" IN1 [7:0] $end
$var wire 8 X" IN2 [7:0] $end
$var wire 1 '" SELECT $end
$var reg 8 Y" OUT [7:0] $end
$upscope $end
$upscope $end
$upscope $end
$enddefinitions $end
$comment Show the parameter values. $end
$dumpall
b1 ^
b0 ]
b10 D
b1 C
b0 B
$end
#0
$dumpvars
bx Y"
bx X"
bx W"
bx V"
bx U"
bx T"
bx S"
bx R"
bx Q"
bx P"
bx O"
bx N"
bx M"
bx L"
bx K"
bx J"
bx I"
bx H"
bx G"
bx F"
bx E"
bx D"
bx C"
bx B"
bx A"
bx @"
bx ?"
bx >"
bx ="
bx <"
bx ;"
bx :"
bx 9"
bx 8"
bx 7"
bx 6"
bx 5"
bx 4"
bx 3"
bx 2"
bx 1"
bx 0"
bx /"
bx ."
bx -"
bx ,"
bx +"
bx *"
x)"
bx ("
x'"
x&"
x%"
x$"
bx #"
bx ""
x!"
x~
bx }
bx |
bx {
bx z
bx y
bx x
bx w
bx v
bx u
bx t
bx s
bx r
bx q
bx p
xo
xn
bx m
bx l
bx k
bx j
bx i
bx h
bx g
bx f
0e
bx d
b1000 c
b0 b
b0 a
bx `
bx _
bx \
bx [
bx Z
bx Y
bx X
bx W
xV
xU
bx T
xS
bx R
b100000000 Q
0P
bx O
0N
b0xxxxxxxx M
bx L
b1000 K
b0 J
b0 I
b0xxxxxxxx H
bx G
bx F
xE
bx A
bx @
bx ?
bx >
bx =
bx <
bx ;
x:
x9
x8
x7
bx 6
15
04
bx 3
x2
x1
bx 0
x/
bx .
bx -
0,
0+
bx *
0)
b0xxxxxxxx (
bx '
0&
bx %
0$
bx #
x"
bx !
$end
#10
b0x \
b0x @
#40
b1000 c
b1000 K
14
#50
b0 l
b0 +"
1)"
b0 Y
b0 [
b0 W
1"
b0 R
b1000 T"
b0 !
b0 #"
b0 ("
b0 L"
05
#60
b1 a
0S
b100 x
b100 *"
b100 1"
0U
b100 w
b100 0"
b100 K"
b100 M"
#80
04
#120
1e
1&
b0 '
b0 `
b0 d
1$
b1 a
b1 b
14
#160
04
#200
14
#240
04
#280
14
#320
04
#360
14
#400
04
#440
14
#480
04
#520
14
#560
04
#600
14
bx00001001 %
bx00001001 Z
bx00001001 f
#640
04
#680
14
#720
04
#760
14
#800
04
#840
14
#880
04
#920
14
#960
04
#1000
14
bx0000000000001001 %
bx0000000000001001 Z
bx0000000000001001 f
#1040
04
#1080
14
#1120
04
#1160
14
#1200
04
#1240
14
#1280
04
#1320
14
#1360
04
#1400
14
bx000000000000000000001001 %
bx000000000000000000001001 Z
bx000000000000000000001001 f
#1440
04
#1480
14
#1520
04
#1560
14
#1600
04
#1640
14
#1680
04
#1720
14
#1760
04
#1800
14
bx00000000000000000000000000001001 %
bx00000000000000000000000000001001 Z
bx00000000000000000000000000001001 f
#1840
04
#1880
14
#1920
04
#1960
14
#2000
04
#2040
14
#2080
04
#2120
14
#2160
04
#2200
14
bx0000000100000000000000000000000000001001 %
bx0000000100000000000000000000000000001001 Z
bx0000000100000000000000000000000000001001 f
#2240
04
#2280
14
#2320
04
#2360
14
#2400
04
#2440
14
#2480
04
#2520
14
#2560
04
#2600
14
bx000000000000000100000000000000000000000000001001 %
bx000000000000000100000000000000000000000000001001 Z
bx000000000000000100000000000000000000000000001001 f
#2640
04
#2680
14
#2720
04
#2760
14
#2800
04
#2840
14
#2880
04
#2920
14
#2960
04
#3000
14
bx00000001000000000000000100000000000000000000000000001001 %
bx00000001000000000000000100000000000000000000000000001001 Z
bx00000001000000000000000100000000000000000000000000001001 f
#3040
04
#3080
14
#3120
04
#3160
14
#3200
04
#3240
14
#3280
04
#3320
14
#3360
04
#3400
14
bx0000000000000001000000000000000100000000000000000000000000001001 %
bx0000000000000001000000000000000100000000000000000000000000001001 Z
bx0000000000000001000000000000000100000000000000000000000000001001 f
#3440
04
#3480
14
#3520
04
#3560
14
#3600
04
#3640
14
#3680
04
#3720
14
#3760
04
#3800
14
bx000000010000000000000001000000000000000100000000000000000000000000001001 %
bx000000010000000000000001000000000000000100000000000000000000000000001001 Z
bx000000010000000000000001000000000000000100000000000000000000000000001001 f
#3840
04
#3880
14
#3920
04
#3960
14
#4000
04
#4040
14
#4080
04
#4120
14
#4160
04
#4200
14
bx00000000000000010000000000000001000000000000000100000000000000000000000000001001 %
bx00000000000000010000000000000001000000000000000100000000000000000000000000001001 Z
bx00000000000000010000000000000001000000000000000100000000000000000000000000001001 f
#4240
04
#4280
14
#4320
04
#4360
14
#4400
04
#4440
14
#4480
04
#4520
14
#4560
04
#4600
14
bx0000000000000000000000010000000000000001000000000000000100000000000000000000000000001001 %
bx0000000000000000000000010000000000000001000000000000000100000000000000000000000000001001 Z
bx0000000000000000000000010000000000000001000000000000000100000000000000000000000000001001 f
#4640
04
#4680
14
#4720
04
#4760
14
#4800
04
#4840
14
#4880
04
#4920
14
#4960
04
#5000
14
bx000010100000000000000000000000010000000000000001000000000000000100000000000000000000000000001001 %
bx000010100000000000000000000000010000000000000001000000000000000100000000000000000000000000001001 Z
bx000010100000000000000000000000010000000000000001000000000000000100000000000000000000000000001001 f
#5040
04
#5080
14
#5120
04
#5160
14
#5200
04
#5240
14
#5280
04
#5320
14
#5360
04
#5400
14
bx00000000000010100000000000000000000000010000000000000001000000000000000100000000000000000000000000001001 %
bx00000000000010100000000000000000000000010000000000000001000000000000000100000000000000000000000000001001 Z
bx00000000000010100000000000000000000000010000000000000001000000000000000100000000000000000000000000001001 f
#5440
04
#5480
14
#5520
04
#5560
14
#5600
04
#5640
14
#5680
04
#5720
14
#5760
04
#5800
14
bx0000000100000000000010100000000000000000000000010000000000000001000000000000000100000000000000000000000000001001 %
bx0000000100000000000010100000000000000000000000010000000000000001000000000000000100000000000000000000000000001001 Z
bx0000000100000000000010100000000000000000000000010000000000000001000000000000000100000000000000000000000000001001 f
#5840
04
#5880
14
#5920
04
#5960
14
#6000
04
#6040
14
#6080
04
#6120
14
#6160
04
#6200
14
bx000000000000000100000000000010100000000000000000000000010000000000000001000000000000000100000000000000000000000000001001 %
bx000000000000000100000000000010100000000000000000000000010000000000000001000000000000000100000000000000000000000000001001 Z
bx000000000000000100000000000010100000000000000000000000010000000000000001000000000000000100000000000000000000000000001001 f
#6240
04
#6280
14
#6320
04
#6360
14
#6400
04
#6440
14
#6480
04
#6520
14
#6560
04
#6600
b0 b
b1 a
14
0e
0&
b1011000000000000000100000000000010100000000000000000000000010000000000000001000000000000000100000000000000000000000000001001 %
b1011000000000000000100000000000010100000000000000000000000010000000000000001000000000000000100000000000000000000000000001001 Z
b1011000000000000000100000000000010100000000000000000000000010000000000000001000000000000000100000000000000000000000000001001 f
#6610
bx '
bx `
bx d
0$
#6620
b0 a
xS
b0 \
1U
b1011000000000000000100000000000010100000000000000000000000010000000000000001000000000000000100000000000000000000000000001001 T
#6629
1S
1V
#6630
b0 v
b0 Q"
b1 u
b1 S"
b0 p
b0 O"
b0 I"
b1001 {
b1001 2"
b0 z
b0 H"
b1001 #
b1001 X
b1001 h
b1001 _
#6640
b100 l
b100 +"
0n
0)"
02
b1001 y
b1001 4"
b1001 5"
b1001 ="
b1001 @"
b1001 C"
b1001 E"
0"
0%"
0/
01
1$"
0~
0!"
0'"
1&"
b0 }
b0 6"
b0 ""
04
#6650
0o
b0 ;
b10 >
b1 <
b1001 t
b1001 ."
b1001 N"
b1001 3
b1001 A
b1001 g
b1001 |
b1001 -"
b1001 <"
b0 k
b0 3"
b0 Y"
b0x00x 9"
b0x00x A"
bx1xx1 7"
bx1xx1 F"
b1001 8"
b1001 D"
b0 .
b0 ?
b0 j
b0 s
b0 ;"
b0 ?"
b0 B"
b0 G"
b0 P"
b0 r
b0 R"
b0 U"
b0 W"
b100 q
b100 /"
b100 J"
#6660
08
09
07
b1001 7"
b1001 F"
b0 9"
b0 A"
b0 m
b0 V"
b0 X"
#6670
b1001 :"
b1001 >"
#6680
14
#6690
1)"
b1 Y
1"
b100 R
b100 !
b100 #"
b100 ("
b100 L"
#6700
b1 y
b1 4"
b1 5"
b1 ="
b1 @"
b1 C"
b1 E"
b1 p
b1 O"
b1 {
b1 2"
b1 z
b1 H"
b10000000000000001 #
b10000000000000001 X
b10000000000000001 h
b1000 x
b1000 *"
b1000 1"
b10000000000000001 _
b1000 w
b1000 0"
b1000 K"
b1000 M"
#6710
b0 >
b1 t
b1 ."
b1 N"
b1 3
b1 A
b1 g
b1 |
b1 -"
b1 <"
b1 7"
b1 F"
b1 8"
b1 D"
b1001 .
b1001 ?
b1001 j
b1001 s
b1001 ;"
b1001 ?"
b1001 B"
b1001 G"
b1001 P"
#6720
b1000 l
b1000 +"
0)"
0"
b1001 7"
b1001 F"
b1 9"
b1 A"
b1100 q
b1100 /"
b1100 J"
04
#6730
b1010 :"
b1010 >"
#6760
14
#6770
1)"
b10 Y
1"
b1000 R
b1000 !
b1000 #"
b1000 ("
b1000 L"
#6780
b0 p
b0 O"
b0 z
b0 H"
b1010000000000000000000000001 #
b1010000000000000000000000001 X
b1010000000000000000000000001 h
b1100 x
b1100 *"
b1100 1"
b1010000000000000000000000001 _
b1100 w
b1100 0"
b1100 K"
b1100 M"
#6790
b1 I
1E
12
b1 k
b1 3"
b1 Y"
1/
0$"
0&"
b1010 ""
b1 r
b1 R"
b1 U"
b1 W"
#6800
0"
b11111111 m
b11111111 V"
b11111111 X"
04
#6840
1N
1,
bx (
bx H
bx M
b0 -
b0 G
b0 L
1+
b1 I
b1 J
14
#6880
04
#6920
14
#6960
04
#7000
14
#7040
04
#7080
14
#7120
04
#7160
14
#7200
04
#7240
14
#7280
04
#7320
14
bx00000000 *
bx00000000 =
bx00000000 O
#7360
04
#7400
14
#7440
04
#7480
14
#7520
04
#7560
14
#7600
04
#7640
14
#7680
04
#7720
14
bx0000000000000000 *
bx0000000000000000 =
bx0000000000000000 O
#7760
04
#7800
14
#7840
04
#7880
14
#7920
04
#7960
14
#8000
04
#8040
14
#8080
04
#8120
14
bx000000000000000000000000 *
bx000000000000000000000000 =
bx000000000000000000000000 O
#8160
04
#8200
14
#8240
04
#8280
14
#8320
04
#8360
14
#8400
04
#8440
14
#8480
04
#8520
b0 J
b1 I
14
0N
0,
b0 *
b0 =
b0 O
#8540
b0 I
x8
b0xxxxxxxx (
b0xxxxxxxx H
b0xxxxxxxx M
bx -
bx G
bx L
0+
b0 0
b0 F
b0 i
b0 ,"
19
b0 @
b0 6
#8549
18
1:
#8560
b1100 l
b1100 +"
0)"
0/
02
04
#8600
0E
14
#8610
1)"
b11 Y
1"
b1001 0
b1001 F
b1001 i
b1001 ,"
b1100 R
17
b100100000000 6
b1100 !
b1100 #"
b1100 ("
b1100 L"
#8620
b1 v
b1 Q"
b0 u
b0 S"
b0 {
b0 2"
b1011000000000000000100000000 #
b1011000000000000000100000000 X
b1011000000000000000100000000 h
b10000 x
b10000 *"
b10000 1"
b1011000000000000000100000000 _
b10000 w
b10000 0"
b10000 K"
b10000 M"
#8630
1E
12
b0 y
b0 4"
b0 5"
b0 ="
b0 @"
b0 C"
b0 E"
1/
1&"
b1011 ""
#8640
1o
b0 0
b0 F
b0 i
b0 ,"
b10000 l
b10000 +"
b0 <
b0 t
b0 ."
b0 N"
0)"
0/
b0 3
b0 A
b0 g
b0 |
b0 -"
b0 <"
b1001 k
b1001 3"
b1001 Y"
0"
02
b0 9"
b0 A"
b0 8"
b0 D"
b1 .
b1 ?
b1 j
b1 s
b1 ;"
b1 ?"
b1 B"
b1 G"
b1 P"
b1001 r
b1001 R"
b1001 U"
b1001 W"
b10000 q
b10000 /"
b10000 J"
04
#8650
b1 7"
b1 F"
b11110111 m
b11110111 V"
b11110111 X"
#8660
b1 :"
b1 >"
#8680
0E
14
#8690
1)"
b0 Y
b1 [
1"
b1 0
b1 F
b1 i
b1 ,"
b10000 R
b100100000001 6
b10000 !
b10000 #"
b10000 ("
b10000 L"
#8700
bx v
bx Q"
bx y
bx 4"
bx 5"
bx ="
bx @"
bx C"
bx E"
bx u
bx S"
bx p
bx O"
bx I"
bx {
bx 2"
bx z
bx H"
b1 a
bx #
bx X
bx h
0S
b10100 x
b10100 *"
b10100 1"
b1001 _
bx T
b0x \
0U
b10100 w
b10100 0"
b10100 K"
b10100 M"
#8709
xV
#8710
xo
bx ;
bx >
bx <
bx t
bx ."
bx N"
bx 3
bx A
bx g
bx |
bx -"
bx <"
b0x 9"
b0x A"
bx1 7"
bx1 F"
bx 8"
bx D"
bx ""
#8719
x8
x:
#8720
bx k
bx 3"
bx Y"
bx 6
b0x @
x9
x7
bx .
bx ?
bx j
bx s
bx ;"
bx ?"
bx B"
bx G"
bx P"
bx :"
bx >"
bx r
bx R"
bx U"
bx W"
bx q
bx /"
bx J"
04
#8730
bx 7"
bx F"
bx 9"
bx A"
bx m
bx V"
bx X"
#8760
1e
1&
b1 '
b1 `
b1 d
1$
b1 a
b1 b
14
#8800
04
#8840
14
#8880
04
#8920
14
#8960
04
#9000
14
#9040
04
#9080
14
#9120
04
#9160
14
#9200
04
#9240
14
b1011000000000000000100000000000010100000000000000000000000010000000000000001000000000000000100000000000000000000000000000001 %
b1011000000000000000100000000000010100000000000000000000000010000000000000001000000000000000100000000000000000000000000000001 Z
b1011000000000000000100000000000010100000000000000000000000010000000000000001000000000000000100000000000000000000000000000001 f
#9280
04
#9320
14
#9360
04
#9400
14
#9440
04
#9480
14
#9520
04
#9560
14
#9600
04
#9640
14
#9680
04
#9720
14
#9760
04
#9800
14
#9840
04
#9880
14
#9920
04
#9960
14
#10000
04
#10040
14
b1011000000000000000100000000000010100000000000000000000000010000000000000001000000000000000100000000000000100000000000000001 %
b1011000000000000000100000000000010100000000000000000000000010000000000000001000000000000000100000000000000100000000000000001 Z
b1011000000000000000100000000000010100000000000000000000000010000000000000001000000000000000100000000000000100000000000000001 f
#10080
04
#10120
14
#10160
04
#10200
14
#10240
04
#10280
14
#10320
04
#10360
14
#10400
04
#10440
14
b1011000000000000000100000000000010100000000000000000000000010000000000000001000000000000000100001000000000100000000000000001 %
b1011000000000000000100000000000010100000000000000000000000010000000000000001000000000000000100001000000000100000000000000001 Z
b1011000000000000000100000000000010100000000000000000000000010000000000000001000000000000000100001000000000100000000000000001 f
#10480
04
#10520
14
#10560
04
#10600
14
#10640
04
#10680
14
#10720
04
#10760
14
#10800
04
#10840
14
#10880
04
#10920
14
#10960
04
#11000
14
#11040
04
#11080
14
#11120
04
#11160
14
#11200
04
#11240
14
#11280
04
#11320
14
#11360
04
#11400
14
#11440
04
#11480
14
#11520
04
#11560
14
#11600
04
#11640
14
b1011000000000000000100000000000010100000000000000000000000010000000000000011000000000000000100001000000000100000000000000001 %
b1011000000000000000100000000000010100000000000000000000000010000000000000011000000000000000100001000000000100000000000000001 Z
b1011000000000000000100000000000010100000000000000000000000010000000000000011000000000000000100001000000000100000000000000001 f
#11680
04
#11720
14
#11760
04
#11800
14
#11840
04
#11880
14
#11920
04
#11960
14
#12000
04
#12040
14
b1011000000000000000100000000000010100000000000000000000000010000100000000011000000000000000100001000000000100000000000000001 %
b1011000000000000000100000000000010100000000000000000000000010000100000000011000000000000000100001000000000100000000000000001 Z
b1011000000000000000100000000000010100000000000000000000000010000100000000011000000000000000100001000000000100000000000000001 f
#12080
04
#12120
14
#12160
04
#12200
14
#12240
04
#12280
14
#12320
04
#12360
14
#12400
04
#12440
14
#12480
04
#12520
14
#12560
04
#12600
14
#12640
04
#12680
14
#12720
04
#12760
14
#12800
04
#12840
14
#12880
04
#12920
14
#12960
04
#13000
14
#13040
04
#13080
14
#13120
04
#13160
14
#13200
04
#13240
14
b1011000000000000000100000000000010100000010000000000000000010000100000000011000000000000000100001000000000100000000000000001 %
b1011000000000000000100000000000010100000010000000000000000010000100000000011000000000000000100001000000000100000000000000001 Z
b1011000000000000000100000000000010100000010000000000000000010000100000000011000000000000000100001000000000100000000000000001 f
#13280
04
#13320
14
#13360
04
#13400
14
#13440
04
#13480
14
#13520
04
#13560
14
#13600
04
#13640
14
b1011000000000000000100000000000000110000010000000000000000010000100000000011000000000000000100001000000000100000000000000001 %
b1011000000000000000100000000000000110000010000000000000000010000100000000011000000000000000100001000000000100000000000000001 Z
b1011000000000000000100000000000000110000010000000000000000010000100000000011000000000000000100001000000000100000000000000001 f
#13680
04
#13720
14
#13760
04
#13800
14
#13840
04
#13880
14
#13920
04
#13960
14
#14000
04
#14040
14
b1011000000000000000100000010000000110000010000000000000000010000100000000011000000000000000100001000000000100000000000000001 %
b1011000000000000000100000010000000110000010000000000000000010000100000000011000000000000000100001000000000100000000000000001 Z
b1011000000000000000100000010000000110000010000000000000000010000100000000011000000000000000100001000000000100000000000000001 f
#14080
04
#14120
14
#14160
04
#14200
14
#14240
04
#14280
14
#14320
04
#14360
14
#14400
04
#14440
14
b1011000000000000010000000010000000110000010000000000000000010000100000000011000000000000000100001000000000100000000000000001 %
b1011000000000000010000000010000000110000010000000000000000010000100000000011000000000000000100001000000000100000000000000001 Z
b1011000000000000010000000010000000110000010000000000000000010000100000000011000000000000000100001000000000100000000000000001 f
#14480
04
#14520
14
#14560
04
#14600
14
#14640
04
#14680
14
#14720
04
#14760
14
#14800
04
#14840
14
#14880
04
#14920
14
#14960
04
#15000
14
#15040
04
#15080
14
#15120
04
#15160
14
#15200
04
#15240
b0 b
b1 a
14
0e
0&
#15250
bx '
bx `
bx d
0$
#15260
b0 a
xS
b0 \
1U
b1011000000000000010000000010000000110000010000000000000000010000100000000011000000000000000100001000000000100000000000000001 T
#15269
b0 v
b0 Q"
b1001 y
b1001 4"
b1001 5"
b1001 ="
b1001 @"
b1001 C"
b1001 E"
b1 u
b1 S"
b0 p
b0 O"
b0 I"
b1001 {
b1001 2"
b0 z
b0 H"
b1001 #
b1001 X
b1001 h
1S
1V
#15270
b1 y
b1 4"
b1 5"
b1 ="
b1 @"
b1 C"
b1 E"
b10 p
b10 O"
b1 {
b1 2"
b10 z
b10 H"
b1000000000100000000000000001 #
b1000000000100000000000000001 X
b1000000000100000000000000001 h
b1000000000100000000000000001 _
#15279
b1 t
b1 ."
b1 N"
12
bx y
bx 4"
bx 5"
bx ="
bx @"
bx C"
bx E"
1%"
11
1$"
0&"
b1000 ""
#15280
0"
04
#15289
b1 y
b1 4"
b1 5"
b1 ="
b1 @"
b1 C"
b1 E"
b1 k
b1 3"
b1 Y"
b1001 .
b1001 ?
b1001 j
b1001 s
b1001 ;"
b1001 ?"
b1001 B"
b1001 G"
b1001 P"
b1 r
b1 R"
b1 U"
b1 W"
#15290
b11100 q
b11100 /"
b11100 J"
#15299
0o
bx t
bx ."
bx N"
bx 0
bx F
bx i
bx ,"
b0 ;
b0 >
b1 <
b1 3
b1 A
b1 g
b1 |
b1 -"
b1 <"
b1 8"
b1 D"
b1001 7"
b1001 F"
b1 9"
b1 A"
b11111111 m
b11111111 V"
b11111111 X"
#15309
b1001 t
b1001 ."
b1001 N"
b1001 0
b1001 F
b1001 i
b1001 ,"
b100100000001 6
b0 @
19
17
b1010 :"
b1010 >"
#15318
18
1:
#15320
b10100 l
b10100 +"
0)"
01
02
14
#15330
1)"
b1 Y
1"
b10100 R
b10100 !
b10100 #"
b10100 ("
b10100 L"
#15340
b11 p
b11 O"
b11 z
b11 H"
b1000000000110000000000000001 #
b1000000000110000000000000001 X
b1000000000110000000000000001 h
b11000 x
b11000 *"
b11000 1"
b1000000000110000000000000001 _
b11000 w
b11000 0"
b11000 K"
b11000 M"
#15350
12
11
#15360
b11000 l
b11000 +"
0)"
01
0"
02
b100100 q
b100100 /"
b100100 J"
04
#15400
14
#15410
1)"
b10 Y
1"
b11000 R
b11000 !
b11000 #"
b11000 ("
b11000 L"
#15420
b100 p
b100 O"
b100 z
b100 H"
b11000001000000000000000001 #
b11000001000000000000000001 X
b11000001000000000000000001 h
b11100 x
b11100 *"
b11100 1"
b11000001000000000000000001 _
b11100 w
b11100 0"
b11100 K"
b11100 M"
#15430
b0 0
b0 F
b0 i
b0 ,"
b11111111 y
b11111111 4"
b11111111 5"
b11111111 ="
b11111111 @"
b11111111 C"
b11111111 E"
b10 >
b10 <
b1010 t
b1010 ."
b1010 N"
b11111111 k
b11111111 3"
b11111111 Y"
b1010 3
b1010 A
b1010 g
b1010 |
b1010 -"
b1010 <"
0%"
1'"
b1 }
b1 6"
b11 ""
#15440
b11100 l
b11100 +"
0)"
bx 0
bx F
bx i
bx ,"
08
0"
b1001 9"
b1001 A"
b11111111 7"
b11111111 F"
b11111111 8"
b11111111 D"
bx 6
b0x @
09
07
b101100 q
b101100 /"
b101100 J"
04
#15449
x:
#15450
b0 <
b1000 t
b1000 ."
b1000 N"
b1000 3
b1000 A
b1000 g
b1000 |
b1000 -"
b1000 <"
b1000 :"
b1000 >"
#15480
14
#15490
1)"
b11 Y
1"
b11100 R
b11100 !
b11100 #"
b11100 ("
b11100 L"
#15500
b100 v
b100 Q"
b10 u
b10 S"
b0 p
b0 O"
b10 {
b10 2"
b0 z
b0 H"
b1011000000000000010000000010 #
b1011000000000000010000000010 X
b1011000000000000010000000010 h
b100000 x
b100000 *"
b100000 1"
b1011000000000000010000000010 _
b100000 w
b100000 0"
b100000 K"
b100000 M"
#15510
b111 ;
b111 >
b11 <
b11111111 t
b11111111 ."
b11111111 N"
b1 I
1E
12
b1 k
b1 3"
b1 Y"
b10 y
b10 4"
b10 5"
b10 ="
b10 @"
b10 C"
b10 E"
b11111111 3
b11111111 A
b11111111 g
b11111111 |
b11111111 -"
b11111111 <"
1/
0$"
0'"
1&"
b0 }
b0 6"
b1011 ""
#15519
0:
